Registrador/wave.vcd
$date
  Tue May 20 19:31:08 2025
$end
$version
  GHDL v0
$end
$timescale
  1 fs
$end
$scope module standard $end
$upscope $end
$scope module std_logic_1164 $end
$upscope $end
$scope module numeric_std $end
$upscope $end
$scope module bancoregistradores_tb $end
$var reg 1 ! clk $end
$var reg 1 " rst $end
$var reg 1 # wr_en $end
$var reg 4 $ reg_r[3:0] $end
$var reg 16 % data_wr[15:0] $end
$var reg 16 & data_out[15:0] $end
$scope module uut $end
$var reg 1 ' clk $end
$var reg 1 ( rst $end
$var reg 1 ) wr_en $end
$var reg 4 * reg_r[3:0] $end
$var reg 16 + data_wr[15:0] $end
$var reg 16 , data_out[15:0] $end
$var reg 16 - r0[15:0] $end
$var reg 16 . r1[15:0] $end
$var reg 16 / r2[15:0] $end
$var reg 16 0 r3[15:0] $end
$var reg 16 1 r4[15:0] $end
$var reg 16 2 r5[15:0] $end
$var reg 16 3 r6[15:0] $end
$var reg 16 4 r7[15:0] $end
$var reg 16 5 r8[15:0] $end
$var reg 16 6 r9[15:0] $end
$var reg 1 7 wr_en0 $end
$var reg 1 8 wr_en1 $end
$var reg 1 9 wr_en2 $end
$var reg 1 : wr_en3 $end
$var reg 1 ; wr_en4 $end
$var reg 1 < wr_en5 $end
$var reg 1 = wr_en6 $end
$var reg 1 > wr_en7 $end
$var reg 1 ? wr_en8 $end
$var reg 1 @ wr_en9 $end
$scope module reg0 $end
$var reg 1 A clk $end
$var reg 1 B rst $end
$var reg 1 C wr_en $end
$var reg 16 D data_in[15:0] $end
$var reg 16 E data_out[15:0] $end
$var reg 16 F registro[15:0] $end
$upscope $end
$scope module reg1 $end
$var reg 1 G clk $end
$var reg 1 H rst $end
$var reg 1 I wr_en $end
$var reg 16 J data_in[15:0] $end
$var reg 16 K data_out[15:0] $end
$var reg 16 L registro[15:0] $end
$upscope $end
$scope module reg2 $end
$var reg 1 M clk $end
$var reg 1 N rst $end
$var reg 1 O wr_en $end
$var reg 16 P data_in[15:0] $end
$var reg 16 Q data_out[15:0] $end
$var reg 16 R registro[15:0] $end
$upscope $end
$scope module reg3 $end
$var reg 1 S clk $end
$var reg 1 T rst $end
$var reg 1 U wr_en $end
$var reg 16 V data_in[15:0] $end
$var reg 16 W data_out[15:0] $end
$var reg 16 X registro[15:0] $end
$upscope $end
$scope module reg4 $end
$var reg 1 Y clk $end
$var reg 1 Z rst $end
$var reg 1 [ wr_en $end
$var reg 16 \ data_in[15:0] $end
$var reg 16 ] data_out[15:0] $end
$var reg 16 ^ registro[15:0] $end
$upscope $end
$scope module reg5 $end
$var reg 1 _ clk $end
$var reg 1 ` rst $end
$var reg 1 a wr_en $end
$var reg 16 b data_in[15:0] $end
$var reg 16 c data_out[15:0] $end
$var reg 16 d registro[15:0] $end
$upscope $end
$scope module reg6 $end
$var reg 1 e clk $end
$var reg 1 f rst $end
$var reg 1 g wr_en $end
$var reg 16 h data_in[15:0] $end
$var reg 16 i data_out[15:0] $end
$var reg 16 j registro[15:0] $end
$upscope $end
$scope module reg7 $end
$var reg 1 k clk $end
$var reg 1 l rst $end
$var reg 1 m wr_en $end
$var reg 16 n data_in[15:0] $end
$var reg 16 o data_out[15:0] $end
$var reg 16 p registro[15:0] $end
$upscope $end
$scope module reg8 $end
$var reg 1 q clk $end
$var reg 1 r rst $end
$var reg 1 s wr_en $end
$var reg 16 t data_in[15:0] $end
$var reg 16 u data_out[15:0] $end
$var reg 16 v registro[15:0] $end
$upscope $end
$scope module reg9 $end
$var reg 1 w clk $end
$var reg 1 x rst $end
$var reg 1 y wr_en $end
$var reg 16 z data_in[15:0] $end
$var reg 16 { data_out[15:0] $end
$var reg 16 | registro[15:0] $end
$upscope $end
$upscope $end
$upscope $end
$enddefinitions $end
#0
0!
1"
0#
b0000 $
b0000000000000000 %
b0000000000000000 &
0'
1(
0)
b0000 *
b0000000000000000 +
b0000000000000000 ,
b0000000000000000 -
b0000000000000000 .
b0000000000000000 /
b0000000000000000 0
b0000000000000000 1
b0000000000000000 2
b0000000000000000 3
b0000000000000000 4
b0000000000000000 5
b0000000000000000 6
07
08
09
0:
0;
0<
0=
0>
0?
0@
0A
1B
0C
b0000000000000000 D
b0000000000000000 E
b0000000000000000 F
0G
1H
0I
b0000000000000000 J
b0000000000000000 K
b0000000000000000 L
0M
1N
0O
b0000000000000000 P
b0000000000000000 Q
b0000000000000000 R
0S
1T
0U
b0000000000000000 V
b0000000000000000 W
b0000000000000000 X
0Y
1Z
0[
b0000000000000000 \
b0000000000000000 ]
b0000000000000000 ^
0_
1`
0a
b0000000000000000 b
b0000000000000000 c
b0000000000000000 d
0e
1f
0g
b0000000000000000 h
b0000000000000000 i
b0000000000000000 j
0k
1l
0m
b0000000000000000 n
b0000000000000000 o
b0000000000000000 p
0q
1r
0s
b0000000000000000 t
b0000000000000000 u
b0000000000000000 v
0w
1x
0y
b0000000000000000 z
b0000000000000000 {
b0000000000000000 |
#50000000
1!
1'
1A
1G
1M
1S
1Y
1_
1e
1k
1q
1w
#100000000
0!
0'
0A
0G
0M
0S
0Y
0_
0e
0k
0q
0w
#150000000
1!
1'
1A
1G
1M
1S
1Y
1_
1e
1k
1q
1w
#200000000
0!
0"
0'
0(
0A
0B
0G
0H
0M
0N
0S
0T
0Y
0Z
0_
0`
0e
0f
0k
0l
0q
0r
0w
0x
#250000000
1!
1'
1A
1G
1M
1S
1Y
1_
1e
1k
1q
1w
#300000000
0!
1#
0'
1)
17
0A
1C
0G
0M
0S
0Y
0_
0e
0k
0q
0w
#350000000
1!
1'
1A
1G
1M
1S
1Y
1_
1e
1k
1q
1w
#400000000
0!
0#
0'
0)
07
0A
0C
0G
0M
0S
0Y
0_
0e
0k
0q
0w
#450000000
1!
1'
1A
1G
1M
1S
1Y
1_
1e
1k
1q
1w
#500000000
0!
1#
b0001 $
b0000000000001010 %
0'
1)
b0001 *
b0000000000001010 +
18
0A
b0000000000001010 D
0G
1I
b0000000000001010 J
0M
b0000000000001010 P
0S
b0000000000001010 V
0Y
b0000000000001010 \
0_
b0000000000001010 b
0e
b0000000000001010 h
0k
b0000000000001010 n
0q
b0000000000001010 t
0w
b0000000000001010 z
#550000000
1!
b0000000000001010 &
1'
b0000000000001010 ,
b0000000000001010 .
1A
1G
b0000000000001010 K
b0000000000001010 L
1M
1S
1Y
1_
1e
1k
1q
1w
#600000000
0!
0#
0'
0)
08
0A
0G
0I
0M
0S
0Y
0_
0e
0k
0q
0w
#650000000
1!
1'
1A
1G
1M
1S
1Y
1_
1e
1k
1q
1w
#700000000
0!
1#
b0010 $
b0000000000010100 %
b0000000000000000 &
0'
1)
b0010 *
b0000000000010100 +
b0000000000000000 ,
19
0A
b0000000000010100 D
0G
b0000000000010100 J
0M
1O
b0000000000010100 P
0S
b0000000000010100 V
0Y
b0000000000010100 \
0_
b0000000000010100 b
0e
b0000000000010100 h
0k
b0000000000010100 n
0q
b0000000000010100 t
0w
b0000000000010100 z
#750000000
1!
b0000000000010100 &
1'
b0000000000010100 ,
b0000000000010100 /
1A
1G
1M
b0000000000010100 Q
b0000000000010100 R
1S
1Y
1_
1e
1k
1q
1w
#800000000
0!
0#
0'
0)
09
0A
0G
0M
0O
0S
0Y
0_
0e
0k
0q
0w
#850000000
1!
1'
1A
1G
1M
1S
1Y
1_
1e
1k
1q
1w
#900000000
0!
1#
b0011 $
b0000000000011110 %
b0000000000000000 &
0'
1)
b0011 *
b0000000000011110 +
b0000000000000000 ,
1:
0A
b0000000000011110 D
0G
b0000000000011110 J
0M
b0000000000011110 P
0S
1U
b0000000000011110 V
0Y
b0000000000011110 \
0_
b0000000000011110 b
0e
b0000000000011110 h
0k
b0000000000011110 n
0q
b0000000000011110 t
0w
b0000000000011110 z
#950000000
1!
b0000000000011110 &
1'
b0000000000011110 ,
b0000000000011110 0
1A
1G
1M
1S
b0000000000011110 W
b0000000000011110 X
1Y
1_
1e
1k
1q
1w
#1000000000
0!
0#
0'
0)
0:
0A
0G
0M
0S
0U
0Y
0_
0e
0k
0q
0w
#1050000000
1!
1'
1A
1G
1M
1S
1Y
1_
1e
1k
1q
1w
#1100000000
0!
1#
b0100 $
b0000000000101000 %
b0000000000000000 &
0'
1)
b0100 *
b0000000000101000 +
b0000000000000000 ,
1;
0A
b0000000000101000 D
0G
b0000000000101000 J
0M
b0000000000101000 P
0S
b0000000000101000 V
0Y
1[
b0000000000101000 \
0_
b0000000000101000 b
0e
b0000000000101000 h
0k
b0000000000101000 n
0q
b0000000000101000 t
0w
b0000000000101000 z
#1150000000
1!
b0000000000101000 &
1'
b0000000000101000 ,
b0000000000101000 1
1A
1G
1M
1S
1Y
b0000000000101000 ]
b0000000000101000 ^
1_
1e
1k
1q
1w
#1200000000
0!
0#
0'
0)
0;
0A
0G
0M
0S
0Y
0[
0_
0e
0k
0q
0w
#1250000000
1!
1'
1A
1G
1M
1S
1Y
1_
1e
1k
1q
1w
#1300000000
0!
1#
b0101 $
b0000000000110010 %
b0000000000000000 &
0'
1)
b0101 *
b0000000000110010 +
b0000000000000000 ,
1<
0A
b0000000000110010 D
0G
b0000000000110010 J
0M
b0000000000110010 P
0S
b0000000000110010 V
0Y
b0000000000110010 \
0_
1a
b0000000000110010 b
0e
b0000000000110010 h
0k
b0000000000110010 n
0q
b0000000000110010 t
0w
b0000000000110010 z
#1350000000
1!
b0000000000110010 &
1'
b0000000000110010 ,
b0000000000110010 2
1A
1G
1M
1S
1Y
1_
b0000000000110010 c
b0000000000110010 d
1e
1k
1q
1w
#1400000000
0!
0#
0'
0)
0<
0A
0G
0M
0S
0Y
0_
0a
0e
0k
0q
0w
#1450000000
1!
1'
1A
1G
1M
1S
1Y
1_
1e
1k
1q
1w
#1500000000
0!
1#
b0110 $
b0000000000111100 %
b0000000000000000 &
0'
1)
b0110 *
b0000000000111100 +
b0000000000000000 ,
1=
0A
b0000000000111100 D
0G
b0000000000111100 J
0M
b0000000000111100 P
0S
b0000000000111100 V
0Y
b0000000000111100 \
0_
b0000000000111100 b
0e
1g
b0000000000111100 h
0k
b0000000000111100 n
0q
b0000000000111100 t
0w
b0000000000111100 z
#1550000000
1!
b0000000000111100 &
1'
b0000000000111100 ,
b0000000000111100 3
1A
1G
1M
1S
1Y
1_
1e
b0000000000111100 i
b0000000000111100 j
1k
1q
1w
#1600000000
0!
0#
0'
0)
0=
0A
0G
0M
0S
0Y
0_
0e
0g
0k
0q
0w
#1650000000
1!
1'
1A
1G
1M
1S
1Y
1_
1e
1k
1q
1w
#1700000000
0!
1#
b0111 $
b0000000001000110 %
b0000000000000000 &
0'
1)
b0111 *
b0000000001000110 +
b0000000000000000 ,
1>
0A
b0000000001000110 D
0G
b0000000001000110 J
0M
b0000000001000110 P
0S
b0000000001000110 V
0Y
b0000000001000110 \
0_
b0000000001000110 b
0e
b0000000001000110 h
0k
1m
b0000000001000110 n
0q
b0000000001000110 t
0w
b0000000001000110 z
#1750000000
1!
b0000000001000110 &
1'
b0000000001000110 ,
b0000000001000110 4
1A
1G
1M
1S
1Y
1_
1e
1k
b0000000001000110 o
b0000000001000110 p
1q
1w
#1800000000
0!
0#
0'
0)
0>
0A
0G
0M
0S
0Y
0_
0e
0k
0m
0q
0w
#1850000000
1!
1'
1A
1G
1M
1S
1Y
1_
1e
1k
1q
1w
#1900000000
0!
1#
b1000 $
b0000000001010000 %
b0000000000000000 &
0'
1)
b1000 *
b0000000001010000 +
b0000000000000000 ,
1?
0A
b0000000001010000 D
0G
b0000000001010000 J
0M
b0000000001010000 P
0S
b0000000001010000 V
0Y
b0000000001010000 \
0_
b0000000001010000 b
0e
b0000000001010000 h
0k
b0000000001010000 n
0q
1s
b0000000001010000 t
0w
b0000000001010000 z
#1950000000
1!
b0000000001010000 &
1'
b0000000001010000 ,
b0000000001010000 5
1A
1G
1M
1S
1Y
1_
1e
1k
1q
b0000000001010000 u
b0000000001010000 v
1w
#2000000000
0!
0#
0'
0)
0?
0A
0G
0M
0S
0Y
0_
0e
0k
0q
0s
0w
#2050000000
1!
1'
1A
1G
1M
1S
1Y
1_
1e
1k
1q
1w
#2100000000
0!
1#
b1001 $
b0000000001011010 %
b0000000000000000 &
0'
1)
b1001 *
b0000000001011010 +
b0000000000000000 ,
1@
0A
b0000000001011010 D
0G
b0000000001011010 J
0M
b0000000001011010 P
0S
b0000000001011010 V
0Y
b0000000001011010 \
0_
b0000000001011010 b
0e
b0000000001011010 h
0k
b0000000001011010 n
0q
b0000000001011010 t
0w
1y
b0000000001011010 z
#2150000000
1!
b0000000001011010 &
1'
b0000000001011010 ,
b0000000001011010 6
1A
1G
1M
1S
1Y
1_
1e
1k
1q
1w
b0000000001011010 {
b0000000001011010 |
#2200000000
0!
0#
0'
0)
0@
0A
0G
0M
0S
0Y
0_
0e
0k
0q
0w
0y
#2250000000
1!
1'
1A
1G
1M
1S
1Y
1_
1e
1k
1q
1w
#2300000000
0!
b0000 $
b0000000000000000 &
0'
b0000 *
b0000000000000000 ,
0A
0G
0M
0S
0Y
0_
0e
0k
0q
0w
#2350000000
1!
1'
1A
1G
1M
1S
1Y
1_
1e
1k
1q
1w
#2400000000
0!
b0001 $
b0000000000001010 &
0'
b0001 *
b0000000000001010 ,
0A
0G
0M
0S
0Y
0_
0e
0k
0q
0w
#2450000000
1!
1'
1A
1G
1M
1S
1Y
1_
1e
1k
1q
1w
#2500000000
0!
b0010 $
b0000000000010100 &
0'
b0010 *
b0000000000010100 ,
0A
0G
0M
0S
0Y
0_
0e
0k
0q
0w
#2550000000
1!
1'
1A
1G
1M
1S
1Y
1_
1e
1k
1q
1w
#2600000000
0!
b0011 $
b0000000000011110 &
0'
b0011 *
b0000000000011110 ,
0A
0G
0M
0S
0Y
0_
0e
0k
0q
0w
#2650000000
1!
1'
1A
1G
1M
1S
1Y
1_
1e
1k
1q
1w
#2700000000
0!
b0100 $
b0000000000101000 &
0'
b0100 *
b0000000000101000 ,
0A
0G
0M
0S
0Y
0_
0e
0k
0q
0w
#2750000000
1!
1'
1A
1G
1M
1S
1Y
1_
1e
1k
1q
1w
#2800000000
0!
b0101 $
b0000000000110010 &
0'
b0101 *
b0000000000110010 ,
0A
0G
0M
0S
0Y
0_
0e
0k
0q
0w
#2850000000
1!
1'
1A
1G
1M
1S
1Y
1_
1e
1k
1q
1w
#2900000000
0!
b0110 $
b0000000000111100 &
0'
b0110 *
b0000000000111100 ,
0A
0G
0M
0S
0Y
0_
0e
0k
0q
0w
#2950000000
1!
1'
1A
1G
1M
1S
1Y
1_
1e
1k
1q
1w
#3000000000
0!
b0111 $
b0000000001000110 &
0'
b0111 *
b0000000001000110 ,
0A
0G
0M
0S
0Y
0_
0e
0k
0q
0w
#3050000000
1!
1'
1A
1G
1M
1S
1Y
1_
1e
1k
1q
1w
#3100000000
0!
b1000 $
b0000000001010000 &
0'
b1000 *
b0000000001010000 ,
0A
0G
0M
0S
0Y
0_
0e
0k
0q
0w
#3150000000
1!
1'
1A
1G
1M
1S
1Y
1_
1e
1k
1q
1w
#3200000000
0!
b1001 $
b0000000001011010 &
0'
b1001 *
b0000000001011010 ,
0A
0G
0M
0S
0Y
0_
0e
0k
0q
0w
